{
    "page": 2,
    "per_page": 5,
    "photos":[
        {
            "id": 17848355,
            "width": 2784,
            "height": 4176,
            "url": "https://www.pexels.com/photo/moon-over-woman-silhouette-17848355/",
            "photographer": "MEHMET AYTEMİZ",
            "photographer_url": "https://www.pexels.com/@benaytemiz",
            "photographer_id": 147524759,
            "avg_color": "#44484B",
            "src":{
                "original": "https://images.pexels.com/photos/17848355/pexels-photo-17848355.jpeg",
                "large2x": "https://images.pexels.com/photos/17848355/pexels-photo-17848355.jpeg?auto=compress&cs=tinysrgb&dpr=2&h=650&w=940",
                "large": "https://images.pexels.com/photos/17848355/pexels-photo-17848355.jpeg?auto=compress&cs=tinysrgb&h=650&w=940",
                "medium": "https://images.pexels.com/photos/17848355/pexels-photo-17848355.jpeg?auto=compress&cs=tinysrgb&h=350",
                "small": "https://images.pexels.com/photos/17848355/pexels-photo-17848355.jpeg?auto=compress&cs=tinysrgb&h=130",
                "portrait": "https://images.pexels.com/photos/17848355/pexels-photo-17848355.jpeg?auto=compress&cs=tinysrgb&fit=crop&h=1200&w=800",
                "landscape": "https://images.pexels.com/photos/17848355/pexels-photo-17848355.jpeg?auto=compress&cs=tinysrgb&fit=crop&h=627&w=1200",
                "tiny": "https://images.pexels.com/photos/17848355/pexels-photo-17848355.jpeg?auto=compress&cs=tinysrgb&dpr=1&fit=crop&h=200&w=280"
            },
            "liked": false,
            "alt": ""
        },
        {
            "id": 17848878,
            "width": 3456,
            "height": 5184,
            "url": "https://www.pexels.com/photo/woman-hand-holding-flower-17848878/",
            "photographer": "Esra Korkmaz",
            "photographer_url": "https://www.pexels.com/@esrakphoto",
            "photographer_id": 266968882,
            "avg_color": "#A69190",
            "src":{
                "original": "https://images.pexels.com/photos/17848878/pexels-photo-17848878.jpeg",
                "large2x": "https://images.pexels.com/photos/17848878/pexels-photo-17848878.jpeg?auto=compress&cs=tinysrgb&dpr=2&h=650&w=940",
                "large": "https://images.pexels.com/photos/17848878/pexels-photo-17848878.jpeg?auto=compress&cs=tinysrgb&h=650&w=940",
                "medium": "https://images.pexels.com/photos/17848878/pexels-photo-17848878.jpeg?auto=compress&cs=tinysrgb&h=350",
                "small": "https://images.pexels.com/photos/17848878/pexels-photo-17848878.jpeg?auto=compress&cs=tinysrgb&h=130",
                "portrait": "https://images.pexels.com/photos/17848878/pexels-photo-17848878.jpeg?auto=compress&cs=tinysrgb&fit=crop&h=1200&w=800",
                "landscape": "https://images.pexels.com/photos/17848878/pexels-photo-17848878.jpeg?auto=compress&cs=tinysrgb&fit=crop&h=627&w=1200",
                "tiny": "https://images.pexels.com/photos/17848878/pexels-photo-17848878.jpeg?auto=compress&cs=tinysrgb&dpr=1&fit=crop&h=200&w=280"
            },
            "liked": false,
            "alt": ""
        },
        {
            "id": 17852353,
            "width": 4900,
            "height": 6124,
            "url": "https://www.pexels.com/photo/man-walking-towards-louvre-pyramid-17852353/",
            "photographer": "Andras Stefuca",
            "photographer_url": "https://www.pexels.com/@shtefutsa",
            "photographer_id": 641930593,
            "avg_color": "#9C9994",
            "src":{
                "original": "https://images.pexels.com/photos/17852353/pexels-photo-17852353.jpeg",
                "large2x": "https://images.pexels.com/photos/17852353/pexels-photo-17852353.jpeg?auto=compress&cs=tinysrgb&dpr=2&h=650&w=940",
                "large": "https://images.pexels.com/photos/17852353/pexels-photo-17852353.jpeg?auto=compress&cs=tinysrgb&h=650&w=940",
                "medium": "https://images.pexels.com/photos/17852353/pexels-photo-17852353.jpeg?auto=compress&cs=tinysrgb&h=350",
                "small": "https://images.pexels.com/photos/17852353/pexels-photo-17852353.jpeg?auto=compress&cs=tinysrgb&h=130",
                "portrait": "https://images.pexels.com/photos/17852353/pexels-photo-17852353.jpeg?auto=compress&cs=tinysrgb&fit=crop&h=1200&w=800",
                "landscape": "https://images.pexels.com/photos/17852353/pexels-photo-17852353.jpeg?auto=compress&cs=tinysrgb&fit=crop&h=627&w=1200",
                "tiny": "https://images.pexels.com/photos/17852353/pexels-photo-17852353.jpeg?auto=compress&cs=tinysrgb&dpr=1&fit=crop&h=200&w=280"
            },
            "liked": false,
            "alt": "Me Personal"
        },
        {
            "id": 17854099,
            "width": 2160,
            "height": 2700,
            "url": "https://www.pexels.com/photo/sunlight-over-couple-diving-17854099/",
            "photographer": "Maxim Boldyrev",
            "photographer_url": "https://www.pexels.com/@maxim-boldyrev-248513671",
            "photographer_id": 248513671,
            "avg_color": "#796D5F",
            "src":{
                "original": "https://images.pexels.com/photos/17854099/pexels-photo-17854099.jpeg",
                "large2x": "https://images.pexels.com/photos/17854099/pexels-photo-17854099.jpeg?auto=compress&cs=tinysrgb&dpr=2&h=650&w=940",
                "large": "https://images.pexels.com/photos/17854099/pexels-photo-17854099.jpeg?auto=compress&cs=tinysrgb&h=650&w=940",
                "medium": "https://images.pexels.com/photos/17854099/pexels-photo-17854099.jpeg?auto=compress&cs=tinysrgb&h=350",
                "small": "https://images.pexels.com/photos/17854099/pexels-photo-17854099.jpeg?auto=compress&cs=tinysrgb&h=130",
                "portrait": "https://images.pexels.com/photos/17854099/pexels-photo-17854099.jpeg?auto=compress&cs=tinysrgb&fit=crop&h=1200&w=800",
                "landscape": "https://images.pexels.com/photos/17854099/pexels-photo-17854099.jpeg?auto=compress&cs=tinysrgb&fit=crop&h=627&w=1200",
                "tiny": "https://images.pexels.com/photos/17854099/pexels-photo-17854099.jpeg?auto=compress&cs=tinysrgb&dpr=1&fit=crop&h=200&w=280"
            },
            "liked": false,
            "alt": "Deep"
        },
        {
            "id": 17864181,
            "width": 3543,
            "height": 2421,
            "url": "https://www.pexels.com/photo/woman-hands-holding-camera-over-pink-rose-17864181/",
            "photographer": "stayhereforu",
            "photographer_url": "https://www.pexels.com/@stayhereforu-216201233",
            "photographer_id": 216201233,
            "avg_color": "#595D46",
            "src":{
                "original": "https://images.pexels.com/photos/17864181/pexels-photo-17864181.jpeg",
                "large2x": "https://images.pexels.com/photos/17864181/pexels-photo-17864181.jpeg?auto=compress&cs=tinysrgb&dpr=2&h=650&w=940",
                "large": "https://images.pexels.com/photos/17864181/pexels-photo-17864181.jpeg?auto=compress&cs=tinysrgb&h=650&w=940",
                "medium": "https://images.pexels.com/photos/17864181/pexels-photo-17864181.jpeg?auto=compress&cs=tinysrgb&h=350",
                "small": "https://images.pexels.com/photos/17864181/pexels-photo-17864181.jpeg?auto=compress&cs=tinysrgb&h=130",
                "portrait": "https://images.pexels.com/photos/17864181/pexels-photo-17864181.jpeg?auto=compress&cs=tinysrgb&fit=crop&h=1200&w=800",
                "landscape": "https://images.pexels.com/photos/17864181/pexels-photo-17864181.jpeg?auto=compress&cs=tinysrgb&fit=crop&h=627&w=1200",
                "tiny": "https://images.pexels.com/photos/17864181/pexels-photo-17864181.jpeg?auto=compress&cs=tinysrgb&dpr=1&fit=crop&h=200&w=280"
            },
            "liked": false,
            "alt": ""
        }
    ],
    "total_results": 8000,
    "next_page": "https://api.pexels.com/v1/curated/?page=2&per_page=5"
}
