{
    "page": 1,
    "per_page": 3,
    "photos":[
        {
            "id": 3225517,
            "width": 4664,
            "height": 5830,
            "url": "https://www.pexels.com/photo/photo-of-stream-during-daytime-3225517/",
            "photographer": "Michael Block",
            "photographer_url": "https://www.pexels.com/@michael-block-1691617",
            "photographer_id": 1691617,
            "avg_color": "#6D7B7C",
            "src":{
                "original": "https://images.pexels.com/photos/3225517/pexels-photo-3225517.jpeg",
                "large2x": "https://images.pexels.com/photos/3225517/pexels-photo-3225517.jpeg?auto=compress&cs=tinysrgb&dpr=2&h=650&w=940",
                "large": "https://images.pexels.com/photos/3225517/pexels-photo-3225517.jpeg?auto=compress&cs=tinysrgb&h=650&w=940",
                "medium": "https://images.pexels.com/photos/3225517/pexels-photo-3225517.jpeg?auto=compress&cs=tinysrgb&h=350",
                "small": "https://images.pexels.com/photos/3225517/pexels-photo-3225517.jpeg?auto=compress&cs=tinysrgb&h=130",
                "portrait": "https://images.pexels.com/photos/3225517/pexels-photo-3225517.jpeg?auto=compress&cs=tinysrgb&fit=crop&h=1200&w=800",
                "landscape": "https://images.pexels.com/photos/3225517/pexels-photo-3225517.jpeg?auto=compress&cs=tinysrgb&fit=crop&h=627&w=1200",
                "tiny": "https://images.pexels.com/photos/3225517/pexels-photo-3225517.jpeg?auto=compress&cs=tinysrgb&dpr=1&fit=crop&h=200&w=280"
            },
            "liked": false,
            "alt": "Photo Of Stream During Daytime"
        },
        {
            "id": 3408744,
            "width": 3546,
            "height": 2255,
            "url": "https://www.pexels.com/photo/scenic-view-of-snow-capped-mountains-during-night-3408744/",
            "photographer": "stein egil liland",
            "photographer_url": "https://www.pexels.com/@therato",
            "photographer_id": 144244,
            "avg_color": "#557088",
            "src":{
                "original": "https://images.pexels.com/photos/3408744/pexels-photo-3408744.jpeg",
                "large2x": "https://images.pexels.com/photos/3408744/pexels-photo-3408744.jpeg?auto=compress&cs=tinysrgb&dpr=2&h=650&w=940",
                "large": "https://images.pexels.com/photos/3408744/pexels-photo-3408744.jpeg?auto=compress&cs=tinysrgb&h=650&w=940",
                "medium": "https://images.pexels.com/photos/3408744/pexels-photo-3408744.jpeg?auto=compress&cs=tinysrgb&h=350",
                "small": "https://images.pexels.com/photos/3408744/pexels-photo-3408744.jpeg?auto=compress&cs=tinysrgb&h=130",
                "portrait": "https://images.pexels.com/photos/3408744/pexels-photo-3408744.jpeg?auto=compress&cs=tinysrgb&fit=crop&h=1200&w=800",
                "landscape": "https://images.pexels.com/photos/3408744/pexels-photo-3408744.jpeg?auto=compress&cs=tinysrgb&fit=crop&h=627&w=1200",
                "tiny": "https://images.pexels.com/photos/3408744/pexels-photo-3408744.jpeg?auto=compress&cs=tinysrgb&dpr=1&fit=crop&h=200&w=280"
            },
            "liked": false,
            "alt": "Scenic View Of Snow Capped Mountains During Night"
        },
        {
            "id": 15286,
            "width": 2500,
            "height": 1667,
            "url": "https://www.pexels.com/photo/person-walking-between-green-forest-trees-15286/",
            "photographer": "Luis del Río",
            "photographer_url": "https://www.pexels.com/@luisdelrio",
            "photographer_id": 1081,
            "avg_color": "#283419",
            "src":{
                "original": "https://images.pexels.com/photos/15286/pexels-photo.jpg",
                "large2x": "https://images.pexels.com/photos/15286/pexels-photo.jpg?auto=compress&cs=tinysrgb&dpr=2&h=650&w=940",
                "large": "https://images.pexels.com/photos/15286/pexels-photo.jpg?auto=compress&cs=tinysrgb&h=650&w=940",
                "medium": "https://images.pexels.com/photos/15286/pexels-photo.jpg?auto=compress&cs=tinysrgb&h=350",
                "small": "https://images.pexels.com/photos/15286/pexels-photo.jpg?auto=compress&cs=tinysrgb&h=130",
                "portrait": "https://images.pexels.com/photos/15286/pexels-photo.jpg?auto=compress&cs=tinysrgb&fit=crop&h=1200&w=800",
                "landscape": "https://images.pexels.com/photos/15286/pexels-photo.jpg?auto=compress&cs=tinysrgb&fit=crop&h=627&w=1200",
                "tiny": "https://images.pexels.com/photos/15286/pexels-photo.jpg?auto=compress&cs=tinysrgb&dpr=1&fit=crop&h=200&w=280"
            },
            "liked": false,
            "alt": "Person Walking Between Green Forest Trees"
        }
    ],
    "total_results": 8000,
    "next_page": "https://api.pexels.com/v1/search/?page=2&per_page=3&query=nature"
}
