{
    "page": 1,
    "per_page": 7,
    "photos": [
        {
            "id": 1968742,
            "width": 4468,
            "height": 2978,
            "url": "https://www.pexels.com/photo/photo-of-man-riding-bicycle-near-graffiti-wall-1968742/",
            "photographer": "Tato Villanova",
            "photographer_url": "https://www.pexels.com/@tato-villanova-1010245",
            "photographer_id": 1010245,
            "avg_color": "#7D959A",
            "src": {
                "original": "https://images.pexels.com/photos/1968742/pexels-photo-1968742.jpeg",
                "large2x": "https://images.pexels.com/photos/1968742/pexels-photo-1968742.jpeg?auto=compress&cs=tinysrgb&dpr=2&h=650&w=940",
                "large": "https://images.pexels.com/photos/1968742/pexels-photo-1968742.jpeg?auto=compress&cs=tinysrgb&h=650&w=940",
                "medium": "https://images.pexels.com/photos/1968742/pexels-photo-1968742.jpeg?auto=compress&cs=tinysrgb&h=350",
                "small": "https://images.pexels.com/photos/1968742/pexels-photo-1968742.jpeg?auto=compress&cs=tinysrgb&h=130",
                "portrait": "https://images.pexels.com/photos/1968742/pexels-photo-1968742.jpeg?auto=compress&cs=tinysrgb&fit=crop&h=1200&w=800",
                "landscape": "https://images.pexels.com/photos/1968742/pexels-photo-1968742.jpeg?auto=compress&cs=tinysrgb&fit=crop&h=627&w=1200",
                "tiny": "https://images.pexels.com/photos/1968742/pexels-photo-1968742.jpeg?auto=compress&cs=tinysrgb&dpr=1&fit=crop&h=200&w=280"
            },
            "liked": false,
            "alt": "Photo of Man Riding Bicycle Near Graffiti Wall"
        },
        {
            "id": 5446316,
            "width": 4160,
            "height": 6240,
            "url": "https://www.pexels.com/photo/a-person-in-green-sneakers-5446316/",
            "photographer": "cottonbro studio",
            "photographer_url": "https://www.pexels.com/@cottonbro",
            "photographer_id": 1437723,
            "avg_color": "#454445",
            "src": {
                "original": "https://images.pexels.com/photos/5446316/pexels-photo-5446316.jpeg",
                "large2x": "https://images.pexels.com/photos/5446316/pexels-photo-5446316.jpeg?auto=compress&cs=tinysrgb&dpr=2&h=650&w=940",
                "large": "https://images.pexels.com/photos/5446316/pexels-photo-5446316.jpeg?auto=compress&cs=tinysrgb&h=650&w=940",
                "medium": "https://images.pexels.com/photos/5446316/pexels-photo-5446316.jpeg?auto=compress&cs=tinysrgb&h=350",
                "small": "https://images.pexels.com/photos/5446316/pexels-photo-5446316.jpeg?auto=compress&cs=tinysrgb&h=130",
                "portrait": "https://images.pexels.com/photos/5446316/pexels-photo-5446316.jpeg?auto=compress&cs=tinysrgb&fit=crop&h=1200&w=800",
                "landscape": "https://images.pexels.com/photos/5446316/pexels-photo-5446316.jpeg?auto=compress&cs=tinysrgb&fit=crop&h=627&w=1200",
                "tiny": "https://images.pexels.com/photos/5446316/pexels-photo-5446316.jpeg?auto=compress&cs=tinysrgb&dpr=1&fit=crop&h=200&w=280"
            },
            "liked": false,
            "alt": "A Person in Green Sneakers"
        },
        {
            "id": 5464925,
            "width": 6077,
            "height": 4051,
            "url": "https://www.pexels.com/photo/biker-jumping-a-bicycle-5464925/",
            "photographer": "cottonbro studio",
            "photographer_url": "https://www.pexels.com/@cottonbro",
            "photographer_id": 1437723,
            "avg_color": "#353737",
            "src": {
                "original": "https://images.pexels.com/photos/5464925/pexels-photo-5464925.jpeg",
                "large2x": "https://images.pexels.com/photos/5464925/pexels-photo-5464925.jpeg?auto=compress&cs=tinysrgb&dpr=2&h=650&w=940",
                "large": "https://images.pexels.com/photos/5464925/pexels-photo-5464925.jpeg?auto=compress&cs=tinysrgb&h=650&w=940",
                "medium": "https://images.pexels.com/photos/5464925/pexels-photo-5464925.jpeg?auto=compress&cs=tinysrgb&h=350",
                "small": "https://images.pexels.com/photos/5464925/pexels-photo-5464925.jpeg?auto=compress&cs=tinysrgb&h=130",
                "portrait": "https://images.pexels.com/photos/5464925/pexels-photo-5464925.jpeg?auto=compress&cs=tinysrgb&fit=crop&h=1200&w=800",
                "landscape": "https://images.pexels.com/photos/5464925/pexels-photo-5464925.jpeg?auto=compress&cs=tinysrgb&fit=crop&h=627&w=1200",
                "tiny": "https://images.pexels.com/photos/5464925/pexels-photo-5464925.jpeg?auto=compress&cs=tinysrgb&dpr=1&fit=crop&h=200&w=280"
            },
            "liked": false,
            "alt": "Biker Jumping a Bicycle"
        },
        {
            "id": 5465057,
            "width": 5933,
            "height": 3955,
            "url": "https://www.pexels.com/photo/man-in-black-jacket-sitting-on-black-wheel-chair-5465057/",
            "photographer": "cottonbro studio",
            "photographer_url": "https://www.pexels.com/@cottonbro",
            "photographer_id": 1437723,
            "avg_color": "#85878F",
            "src": {
                "original": "https://images.pexels.com/photos/5465057/pexels-photo-5465057.jpeg",
                "large2x": "https://images.pexels.com/photos/5465057/pexels-photo-5465057.jpeg?auto=compress&cs=tinysrgb&dpr=2&h=650&w=940",
                "large": "https://images.pexels.com/photos/5465057/pexels-photo-5465057.jpeg?auto=compress&cs=tinysrgb&h=650&w=940",
                "medium": "https://images.pexels.com/photos/5465057/pexels-photo-5465057.jpeg?auto=compress&cs=tinysrgb&h=350",
                "small": "https://images.pexels.com/photos/5465057/pexels-photo-5465057.jpeg?auto=compress&cs=tinysrgb&h=130",
                "portrait": "https://images.pexels.com/photos/5465057/pexels-photo-5465057.jpeg?auto=compress&cs=tinysrgb&fit=crop&h=1200&w=800",
                "landscape": "https://images.pexels.com/photos/5465057/pexels-photo-5465057.jpeg?auto=compress&cs=tinysrgb&fit=crop&h=627&w=1200",
                "tiny": "https://images.pexels.com/photos/5465057/pexels-photo-5465057.jpeg?auto=compress&cs=tinysrgb&dpr=1&fit=crop&h=200&w=280"
            },
            "liked": false,
            "alt": "Man in Black Jacket Sitting on Black Wheel Chair"
        },
        {
            "id": 5465176,
            "width": 6240,
            "height": 4160,
            "url": "https://www.pexels.com/photo/person-in-black-jacket-sitting-on-stairs-5465176/",
            "photographer": "cottonbro studio",
            "photographer_url": "https://www.pexels.com/@cottonbro",
            "photographer_id": 1437723,
            "avg_color": "#76736C",
            "src": {
                "original": "https://images.pexels.com/photos/5465176/pexels-photo-5465176.jpeg",
                "large2x": "https://images.pexels.com/photos/5465176/pexels-photo-5465176.jpeg?auto=compress&cs=tinysrgb&dpr=2&h=650&w=940",
                "large": "https://images.pexels.com/photos/5465176/pexels-photo-5465176.jpeg?auto=compress&cs=tinysrgb&h=650&w=940",
                "medium": "https://images.pexels.com/photos/5465176/pexels-photo-5465176.jpeg?auto=compress&cs=tinysrgb&h=350",
                "small": "https://images.pexels.com/photos/5465176/pexels-photo-5465176.jpeg?auto=compress&cs=tinysrgb&h=130",
                "portrait": "https://images.pexels.com/photos/5465176/pexels-photo-5465176.jpeg?auto=compress&cs=tinysrgb&fit=crop&h=1200&w=800",
                "landscape": "https://images.pexels.com/photos/5465176/pexels-photo-5465176.jpeg?auto=compress&cs=tinysrgb&fit=crop&h=627&w=1200",
                "tiny": "https://images.pexels.com/photos/5465176/pexels-photo-5465176.jpeg?auto=compress&cs=tinysrgb&dpr=1&fit=crop&h=200&w=280"
            },
            "liked": false,
            "alt": "Person in Black Jacket Sitting on Stairs"
        },
        {
            "id": 5446300,
            "width": 4160,
            "height": 6240,
            "url": "https://www.pexels.com/photo/a-man-in-green-shirt-holding-a-bicycle-5446300/",
            "photographer": "cottonbro studio",
            "photographer_url": "https://www.pexels.com/@cottonbro",
            "photographer_id": 1437723,
            "avg_color": "#A4A4A7",
            "src": {
                "original": "https://images.pexels.com/photos/5446300/pexels-photo-5446300.jpeg",
                "large2x": "https://images.pexels.com/photos/5446300/pexels-photo-5446300.jpeg?auto=compress&cs=tinysrgb&dpr=2&h=650&w=940",
                "large": "https://images.pexels.com/photos/5446300/pexels-photo-5446300.jpeg?auto=compress&cs=tinysrgb&h=650&w=940",
                "medium": "https://images.pexels.com/photos/5446300/pexels-photo-5446300.jpeg?auto=compress&cs=tinysrgb&h=350",
                "small": "https://images.pexels.com/photos/5446300/pexels-photo-5446300.jpeg?auto=compress&cs=tinysrgb&h=130",
                "portrait": "https://images.pexels.com/photos/5446300/pexels-photo-5446300.jpeg?auto=compress&cs=tinysrgb&fit=crop&h=1200&w=800",
                "landscape": "https://images.pexels.com/photos/5446300/pexels-photo-5446300.jpeg?auto=compress&cs=tinysrgb&fit=crop&h=627&w=1200",
                "tiny": "https://images.pexels.com/photos/5446300/pexels-photo-5446300.jpeg?auto=compress&cs=tinysrgb&dpr=1&fit=crop&h=200&w=280"
            },
            "liked": false,
            "alt": "A Man in Green Shirt Holding a Bicycle"
        },
        {
            "id": 5446317,
            "width": 4160,
            "height": 6240,
            "url": "https://www.pexels.com/photo/close-up-shot-of-a-bicycle-5446317/",
            "photographer": "cottonbro studio",
            "photographer_url": "https://www.pexels.com/@cottonbro",
            "photographer_id": 1437723,
            "avg_color": "#2C2A28",
            "src": {
                "original": "https://images.pexels.com/photos/5446317/pexels-photo-5446317.jpeg",
                "large2x": "https://images.pexels.com/photos/5446317/pexels-photo-5446317.jpeg?auto=compress&cs=tinysrgb&dpr=2&h=650&w=940",
                "large": "https://images.pexels.com/photos/5446317/pexels-photo-5446317.jpeg?auto=compress&cs=tinysrgb&h=650&w=940",
                "medium": "https://images.pexels.com/photos/5446317/pexels-photo-5446317.jpeg?auto=compress&cs=tinysrgb&h=350",
                "small": "https://images.pexels.com/photos/5446317/pexels-photo-5446317.jpeg?auto=compress&cs=tinysrgb&h=130",
                "portrait": "https://images.pexels.com/photos/5446317/pexels-photo-5446317.jpeg?auto=compress&cs=tinysrgb&fit=crop&h=1200&w=800",
                "landscape": "https://images.pexels.com/photos/5446317/pexels-photo-5446317.jpeg?auto=compress&cs=tinysrgb&fit=crop&h=627&w=1200",
                "tiny": "https://images.pexels.com/photos/5446317/pexels-photo-5446317.jpeg?auto=compress&cs=tinysrgb&dpr=1&fit=crop&h=200&w=280"
            },
            "liked": false,
            "alt": "Close Up Shot of a Bicycle"
        }
    ],
    "total_results": 8000,
    "next_page": "https://api.pexels.com/v1/search/?page=2&per_page=7&query=bicycle"
}
